…
## augmented dataframe

``` r
library(lme4)

# mixed-effects model
lmm.mod <- lmer(Reaction ~ Days + (Days | Subject), sleepstudy)
broomExtra::augment(lmm.mod)
#> # A tibble: 180 x 14
#>    Reaction  Days Subject .fitted  .resid   .hat .cooksd .fixed   .mu
#>       <dbl> <dbl> <fct>     <dbl>   <dbl>  <dbl>   <dbl>  <dbl> <dbl>
#>  1     250.     0 308        254.   -4.10 0.229  0.00496   251.  254.
#>  2     259.     1 308        273.  -14.6  0.170  0.0402    262.  273.
#>  3     251.     2 308        293.  -42.2  0.127  0.226     272.  293.
#>  4     321.     3 308        313.    8.78 0.101  0.00731   283.  313.
#>  5     357.     4 308        332.   24.5  0.0910 0.0506    293.  332.
#>  6     415.     5 308        352.   62.7  0.0981 0.362     304.  352.
#>  7     382.     6 308        372.   10.5  0.122  0.0134    314.  372.
#>  8     290.     7 308        391. -101.   0.162  1.81      325.  391.
#>  9     431.     8 308        411.   19.6  0.219  0.106     335.  411.
#> 10     466.     9 308        431.   35.7  0.293  0.571     346.  431.
#> # ... with 170 more rows, and 5 more variables: .offset <dbl>,
#> #   .sqrtXwt <dbl>, .sqrtrwt <dbl>, .weights <dbl>, .wtres <dbl>

# linear model
lm.mod <- lm(Reaction ~ Days, sleepstudy)
broomExtra::augment(lm.mod)
#> # A tibble: 180 x 8
#>    Reaction  Days .fitted  .resid .std.resid    .hat .sigma   .cooksd
#>       <dbl> <dbl>   <dbl>   <dbl>      <dbl>   <dbl>  <dbl>     <dbl>
#>  1     250.     0    251.    1.85    -0.0390 0.0192    47.8 0.0000149
#>  2     259.     1    262.    3.17    -0.0669 0.0138    47.8 0.0000313
#>  3     251.     2    272.   21.5     -0.454  0.00976   47.8 0.00101  
#>  4     321.     3    283.  -38.6      0.813  0.00707   47.8 0.00235  
#>  5     357.     4    293.  -63.6      1.34   0.00572   47.6 0.00514  
#>  6     415.     5    304. -111.       2.33   0.00572   47.1 0.0157   
#>  7     382.     6    314.  -68.0      1.43   0.00707   47.6 0.00728  
#>  8     290.     7    325.   34.5     -0.727  0.00976   47.8 0.00261  
#>  9     431.     8    335.  -95.4      2.01   0.0138    47.3 0.0284   
#> 10     466.     9    346. -121.       2.56   0.0192    47.0 0.0639   
#> # ... with 170 more rows
```
