Enhancements for broom and easystats Package Families • broomExtra
…
# setup
set.seed(123)
library(lavaan)

# model specs
HS.model  Error in lavaan::parameterEstimates(x, ci = conf.int, level = conf.level, : unused argument (exponentiate = TRUE)

# parameters method with additional arguments
parameters::model_parameters(mod_lavaan, exponentiate = TRUE)
#> Error in lavaan::parameterEstimates(model, se = TRUE, level = ci, ...): unused argument (exponentiate = TRUE)

# using hybrid function
broomExtra::tidy_parameters(mod_lavaan, exponentiate = TRUE)
#> # A tibble: 24 x 11
#>    term          op    estimate std.error statistic   p.value conf.low conf.high
#>    
#>  1 visual =~ x1  =~       1        0          NA    NA           1         1    
#>  2 visual =~ x2  =~       0.554    0.0997      5.55  2.80e- 8    0.358     0.749
#>  3 visual =~ x3  =~       0.729    0.109       6.68  2.31e-11    0.516     0.943
#>  4 textual =~ x4 =~       1        0          NA    NA           1         1    
#>  5 textual =~ x5 =~       1.11     0.0654     17.0   0.          0.985     1.24 
#>  6 textual =~ x6 =~       0.926    0.0554     16.7   0.          0.817     1.03 
#>  7 speed =~ x7   =~       1        0          NA    NA           1         1    
#>  8 speed =~ x8   =~       1.18     0.165       7.15  8.56e-13    0.857     1.50 
#>  9 speed =~ x9   =~       1.08     0.151       7.15  8.40e-13    0.785     1.38 
#> 10 x1 ~~ x1      ~~       0.549    0.114       4.83  1.34e- 6    0.326     0.772
#>    std.lv std.all std.nox
#>     
#>  1  0.900   0.772   0.772
#>  2  0.498   0.424   0.424
#>  3  0.656   0.581   0.581
#>  4  0.990   0.852   0.852
#>  5  1.10    0.855   0.855
#>  6  0.917   0.838   0.838
#>  7  0.619   0.570   0.570
#>  8  0.731   0.723   0.723
#>  9  0.670   0.665   0.665
#> 10  0.549   0.404   0.404
#> # ... with 14 more rows
…
# to speed up computation, let's use only 50% of the data
set.seed(123)
library(lme4)
library(ggplot2)

# linear model (tidy analysis across grouping combinations)
broomExtra::grouped_tidy(
  data = dplyr::sample_frac(tbl = ggplot2::diamonds, size = 0.5),
  grouping.vars = c(cut, color),
  formula = price ~ carat - 1,
  ..f = stats::lm,
  na.action = na.omit,
  tidy.args = list(quick = TRUE)
)
#> # A tibble: 35 x 7
#>    cut   color term  estimate std.error statistic   p.value
#>    
#>  1 Fair  D     carat    5246.     207.       25.3 4.45e- 41
#>  2 Fair  E     carat    4202.     158.       26.6 3.52e- 47
#>  3 Fair  F     carat    4877.     149.       32.7 1.68e- 71
#>  4 Fair  G     carat    4538.     152.       29.8 1.03e- 66
#>  5 Fair  H     carat    4620.     146.       31.6 7.68e- 66
#>  6 Fair  I     carat    3969.     136.       29.2 4.86e- 44
#>  7 Fair  J     carat    4024.     197.       20.4 4.80e- 27
#>  8 Good  D     carat    5207.     115.       45.4 2.66e-145
#>  9 Good  E     carat    5102.      91.9      55.5 2.50e-206
#> 10 Good  F     carat    5151.      92.4      55.8 1.76e-204
#> # ... with 25 more rows

# linear mixed effects model (tidy analysis across grouping combinations)
broomExtra::grouped_tidy(
  data = dplyr::sample_frac(tbl = ggplot2::diamonds, size = 0.5),
  grouping.vars = cut,
  ..f = lme4::lmer,
  formula = price ~ carat + (carat | color) - 1,
  control = lme4::lmerControl(optimizer = "bobyqa"),
  tidy.args = list(conf.int = TRUE, conf.level = 0.99)
)
#> # A tibble: 25 x 9
#>    cut   effect   group    term                   estimate std.error statistic
#>    
#>  1 Fair  fixed         carat                  3800.         228.      16.7
#>  2 Fair  ran_pars color    sd__(Intercept)        2158.          NA       NA  
#>  3 Fair  ran_pars color    cor__(Intercept).carat   -0.975       NA       NA  
#>  4 Fair  ran_pars color    sd__carat              2545.          NA       NA  
#>  5 Fair  ran_pars Residual sd__Observation        1830.          NA       NA  
#>  6 Good  fixed         carat                  9217.         105.      87.6
#>  7 Good  ran_pars color    sd__(Intercept)        2686.          NA       NA  
#>  8 Good  ran_pars color    cor__(Intercept).carat    0.998       NA       NA  
#>  9 Good  ran_pars color    sd__carat              1609.          NA       NA  
#> 10 Good  ran_pars Residual sd__Observation        1373.          NA       NA  
#>    conf.low conf.high
#>       
#>  1    3212.     4387.
#>  2      NA        NA 
#>  3      NA        NA 
#>  4      NA        NA 
#>  5      NA        NA 
#>  6    8946.     9488.
#>  7      NA        NA 
#>  8      NA        NA 
#>  9      NA        NA 
#> 10      NA        NA 
#> # ... with 15 more rows

grouped_glance

# to speed up computation, let's use only 50% of the data
set.seed(123)

# linear model (model summaries across grouping combinations)
broomExtra::grouped_glance(
  data = dplyr::sample_frac(tbl = ggplot2::diamonds, size = 0.5),
  grouping.vars = c(cut, color),
  formula = price ~ carat - 1,
  ..f = stats::lm,
  na.action = na.omit
)
#> # A tibble: 35 x 14
#>    cut   color r.squared adj.r.squared sigma statistic   p.value    df logLik
#>    
#>  1 Fair  D         0.884         0.883 1857.      641. 4.45e- 41     1  -760.
#>  2 Fair  E         0.876         0.875 1370.      708. 3.52e- 47     1  -872.
#>  3 Fair  F         0.874         0.873 1989.     1071. 1.68e- 71     1 -1406.
#>  4 Fair  G         0.849         0.848 2138.      887. 1.03e- 66     1 -1444.
#>  5 Fair  H         0.876         0.875 2412.      998. 7.68e- 66     1 -1307.
#>  6 Fair  I         0.915         0.914 1499.      850. 4.86e- 44     1  -698.
#>  7 Fair  J         0.885         0.883 2189.      416. 4.80e- 27     1  -501.
#>  8 Good  D         0.860         0.860 1729.     2065. 2.66e-145     1 -2981.
#>  9 Good  E         0.870         0.870 1674.     3084. 2.50e-206     1 -4084.
#> 10 Good  F         0.873         0.873 1677.     3110. 1.76e-204     1 -3997.
#>      AIC   BIC    deviance df.residual  nobs
#>    
#>  1 1524. 1529.  289568733.          84    85
#>  2 1749. 1754.  187724139.         100   101
#>  3 2816. 2822.  613473518.         155   156
#>  4 2893. 2899.  722351124.         158   159
#>  5 2618. 2624.  820050299.         141   142
#>  6 1400. 1405.  177605917.          79    80
#>  7 1005. 1009.  258660541.          54    55
#>  8 5966. 5974. 1001144317.         335   336
#>  9 8173. 8181. 1291712250.         461   462
#> 10 7998. 8006. 1267954026.         451   452
#> # ... with 25 more rows
…
grouped_augment

# to speed up computation, let's use only 50% of the data
set.seed(123)

# linear model
broomExtra::grouped_augment(
  data = ggplot2::diamonds,
  grouping.vars = c(cut, color),
  ..f = stats::lm,
  formula = price ~ carat - 1
)
#> # A tibble: 53,940 x 10
#>    cut   color price carat .fitted .resid .std.resid    .hat .sigma  .cooksd
#>    
#>  1 Fair  D      2848  0.75   3795.   947.     -0.522 0.00342  1822. 0.000933
#>  2 Fair  D      2858  0.71   3593.   735.     -0.405 0.00306  1823. 0.000503
#>  3 Fair  D      2885  0.9    4554.  1669.     -0.920 0.00492  1819. 0.00419 
#>  4 Fair  D      2974  1      5060.  2086.     -1.15  0.00607  1816. 0.00809 
#>  5 Fair  D      3003  1.01   5111.  2108.     -1.16  0.00620  1816. 0.00843 
#>  6 Fair  D      3047  0.73   3694.   647.     -0.356 0.00324  1823. 0.000412
#>  7 Fair  D      3077  0.71   3593.   516.     -0.284 0.00306  1823. 0.000248
#>  8 Fair  D      3079  0.91   4605.  1526.     -0.841 0.00503  1820. 0.00358 
#>  9 Fair  D      3205  0.9    4554.  1349.     -0.744 0.00492  1821. 0.00274 
#> 10 Fair  D      3205  0.9    4554.  1349.     -0.744 0.00492  1821. 0.00274 
#> # ... with 53,930 more rows

# linear mixed-effects model
broomExtra::grouped_augment(
  data = dplyr::sample_frac(tbl = ggplot2::diamonds, size = 0.5),
  grouping.vars = cut,
  ..f = lme4::lmer,
  formula = price ~ carat + (carat | color) - 1,
  control = lme4::lmerControl(optimizer = "bobyqa")
)
#> # A tibble: 26,970 x 15
#>    cut   price carat color .fitted .resid    .hat   .cooksd .fixed   .mu .offset
#>    
#>  1 Fair   8818  1.52 H       7001.  1817. 0.00806 0.00837    3519. 7001.       0
#>  2 Fair   1881  0.65 F       2104.  -223. 0.00225 0.0000346  1505. 2104.       0
#>  3 Fair   2376  1.2  G       5439. -3063. 0.00651 0.0191     2778. 5439.       0
#>  4 Fair   1323  0.5  D       1069.   254. 0.00281 0.0000565  1158. 1069.       0
#>  5 Fair   3282  0.92 F       3935.  -653. 0.00338 0.000448   2130. 3935.       0
#>  6 Fair   2500  0.7  H       2259.   241. 0.00219 0.0000396  1621. 2259.       0
#>  7 Fair  13853  1.5  F       7868.  5985. 0.0149  0.170      3473. 7868.       0
#>  8 Fair   3869  1.01 H       4052.  -183. 0.00287 0.0000297  2338. 4052.       0
#>  9 Fair   1811  0.7  H       2259.  -448. 0.00219 0.000137   1621. 2259.       0
#> 10 Fair   2788  1.01 E       4406. -1618. 0.0135  0.0112     2338. 4406.       0
#>    .sqrtXwt .sqrtrwt .weights .wtres
#>       
#>  1        1        1        1  1817.
#>  2        1        1        1  -223.
#>  3        1        1        1 -3063.
#>  4        1        1        1   254.
#>  5        1        1        1  -653.
#>  6        1        1        1   241.
#>  7        1        1        1  5985.
#>  8        1        1        1  -183.
#>  9        1        1        1  -448.
#> 10        1        1        1 -1618.
#> # ... with 26,960 more rows
…
