Bootstrapped dataframe with estimates from each sample. — boot_tidy • broomExtra
…
    Examples

set.seed(123)

# example-1: linear model
broomExtra::boot_tidy(
  data = mtcars,
  times = 500,
  ..f = stats::lm,
  formula = mpg ~ wt,
  na.action = na.omit,
  tidy.args = list(conf.int = TRUE, conf.level = 0.50)
)
#> # A tibble: 1,000 x 8
#>    id         term      estimate std.error statistic  p.value conf.low conf.high
#>    <chr>      <chr>        <dbl>     <dbl>     <dbl>    <dbl>    <dbl>     <dbl>
#>  1 Bootstrap~ (Interce~    39.7      1.73      22.9  1.44e-20    38.5      40.9 
#>  2 Bootstrap~ wt           -6.10     0.558    -10.9  5.63e-12    -6.48     -5.72
#>  3 Bootstrap~ (Interce~    35.0      1.79      19.5  1.29e-18    33.8      36.2 
#>  4 Bootstrap~ wt           -4.76     0.533     -8.92 6.06e-10    -5.12     -4.39
#>  5 Bootstrap~ (Interce~    37.2      1.93      19.2  2.04e-18    35.9      38.5 
#>  6 Bootstrap~ wt           -5.11     0.532     -9.60 1.18e-10    -5.47     -4.74
#>  7 Bootstrap~ (Interce~    36.2      1.98      18.3  7.90e-18    34.8      37.5 
#>  8 Bootstrap~ wt           -5.24     0.580     -9.04 4.59e-10    -5.64     -4.85
#>  9 Bootstrap~ (Interce~    36.5      2.18      16.8  8.60e-17    35.0      38.0 
#> 10 Bootstrap~ wt           -5.12     0.613     -8.36 2.49e- 9    -5.54     -4.71
#> # ... with 990 more rows
…
  data = sleepstudy,
  times = 25,
  ..f = lme4::lmer,
  formula = Reaction ~ Days + (Days | Subject),
  tidy.args = list(effects = "fixed")
)
#> Warning: Model failed to converge with max|grad| = 0.00205594 (tol = 0.002, component 1)
#> Warning: Model failed to converge with max|grad| = 0.00239836 (tol = 0.002, component 1)
#> Warning: Model failed to converge with max|grad| = 0.00226858 (tol = 0.002, component 1)
#> Warning: Model failed to converge with max|grad| = 0.00237924 (tol = 0.002, component 1)
#> Warning: Model failed to converge with max|grad| = 0.00278758 (tol = 0.002, component 1)
#> Warning: Model failed to converge with max|grad| = 0.00341433 (tol = 0.002, component 1)
#> Warning: Model failed to converge with max|grad| = 0.00943341 (tol = 0.002, component 1)
#> Warning: Model failed to converge with max|grad| = 0.00522705 (tol = 0.002, component 1)
#> # A tibble: 50 x 6
#>    id          effect term        estimate std.error statistic
#>    <chr>       <chr>  <chr>          <dbl>     <dbl>     <dbl>
#>  1 Bootstrap01 fixed  (Intercept)   248.        7.94     31.3 
#>  2 Bootstrap01 fixed  Days           10.8       1.44      7.49
#>  3 Bootstrap02 fixed  (Intercept)   255.        8.42     30.3 
#>  4 Bootstrap02 fixed  Days            9.68      1.73      5.59
#>  5 Bootstrap03 fixed  (Intercept)   245.        7.56     32.5 
#>  6 Bootstrap03 fixed  Days           11.3       1.47      7.65
#>  7 Bootstrap04 fixed  (Intercept)   254.        6.85     37.1 
#>  8 Bootstrap04 fixed  Days           10.2       1.77      5.78
#>  9 Bootstrap05 fixed  (Intercept)   250.        8.19     30.5 
#> 10 Bootstrap05 fixed  Days            9.78      1.66      5.88
#> # ... with 40 more rows
…
